{
  "description": "test of cft and modules",
  "source": "James Michael DuPont",
  "checksums": {
    "manifests/init.pp~": "9b156dc0b36391accbaf0b98e1c468ae",
    "Modulefile~": "29587df024dffbea1cbcf80d1008cbf2",
    "spec/spec_helper.rb": "ca19ec4f451ebc7fdb035b52eae6e909",
    "lib/puppet/type/README.markdown": "34b8c80ba8683afca99f2d28ca7e70b2",
    "spec/unit/puppet/provider/README.markdown": "e52668944ee6af2fb5d5b9e798342645",
    "files/README.markdown": "3d44458cc68d8513b51e3b56c604eec4",
    "files/usr/lib/libfam.so": "fa03cfb029433ff5c6f84399ad997019",
    "files/usr/lib/libfam.so.0": "fa03cfb029433ff5c6f84399ad997019",
    "lib/puppet/provider/README.markdown": "3835801d7626dd8d541c4fdf7ca9f3e4",
    "lib/puppet/parser/functions/README.markdown": "e596ce938864a80fd1e51640cca7f612",
    "README": "57ff7a6ef55b9dec38c291a427b9601e",
    "manifests/README.markdown": "b9970454391883e36b55137328792a55",
    "files/usr/sbin/famd": "8591a71425e0582ed940575ca1cf36ee",
    "templates/README.markdown": "aada0a1952329e46b98695349dba6203",
    "README~": "70be4fad0909ed400d9f6a75c9acea4c",
    "tests/init.pp": "715d418da9f368e803aee19a1952cf4d",
    "files/usr/lib/libfam.la": "d1b5b9405adc562b08c9c045c766d2e8",
    "spec/README.markdown": "32a1fc0121c28aff554ef5d422b8b51e",
    "files/usr/lib/libfam.so.0.0.0": "fa03cfb029433ff5c6f84399ad997019",
    "files/usr/include/fam.h": "acecb7511268ba144bed1053b29c71c2",
    "files/usr/lib/libfam.a": "332ff2d687b9442193ef18e0728ac237",
    "spec/spec.opts": "a600ded995d948e393fbe2320ba8e51c",
    "metadata.json": "d34d0b70aba36510fbc2df4e667479ef",
    "manifests/init.pp": "c516a673d421dc7cc0483875604bd795",
    "Modulefile": "88dd2b1a6dd981f022dfdcffbea617c8",
    "spec/unit/puppet/type/README.markdown": "de26a7643813abd6c2e7e28071b1ef94",
    "lib/puppet/facter/README.markdown": "145e26334b4d80e48e9e55ba78800579"
  },
  "types": [

  ],
  "project_page": "NONE",
  "summary": "test of packaging fam for ubuntu",
  "author": "mdupont",
  "dependencies": [

  ],
  "license": "GPL",
  "version": "0.0.1",
  "name": "mdupont-fam"
}